{"content":[{"id":41,"sourceUrl":"http://example.com/forum/heatstroke/41","sourceSite":"防暑降温","title":"中暑了应该立即怎么办？怎么避免中暑？","content":"天气太热担心会中暑，请问如果自己或家人中暑了，第一时间应该怎么处理？以及平时怎么做可以预防中暑？","crawlTime":"2025-05-04T00:12:24","tags":["中暑","急救","预防"],"standardQuestionId":41,"standardized":true},{"id":40,"sourceUrl":"http://example.com/forum/hydration/40","sourceSite":"饮水健康","title":"每天要喝多少水才够？喝水有什么好处？","content":"经常听人说要多喝水，请问成年人每天到底需要喝多少水才算是足够的？喝水对身体有什么具体的好处？","crawlTime":"2025-05-05T00:12:24","tags":["饮水","水分","健康习惯"],"standardQuestionId":40,"standardized":true},{"id":39,"sourceUrl":"http://example.com/forum/obesity/39","sourceSite":"肥胖","title":"判定肥胖的标准是什么？肥胖对健康有什么影响？","content":"想知道怎么科学地判断一个人是不是肥胖？肥胖除了影响外形，对身体健康具体有哪些危害？","crawlTime":"2025-05-06T00:12:24","tags":["肥胖","体重管理","健康风险"],"standardQuestionId":39,"standardized":true},{"id":38,"sourceUrl":"http://example.com/forum/neckpain/38","sourceSite":"颈椎病","title":"长时间低头玩手机，颈椎不舒服怎么办？","content":"我经常低头玩手机或者看电脑，现在感觉颈椎很僵硬不舒服，有时候还会头晕。请问这是颈椎病吗？有什么方法可以缓解？","crawlTime":"2025-05-07T00:12:24","tags":["颈椎病","颈椎痛","不良习惯"],"standardQuestionId":38,"standardized":true},{"id":37,"sourceUrl":"http://example.com/forum/hairloss/37","sourceSite":"脱发","title":"年轻人脱发严重，怎么改善？","content":"我年纪轻轻就开始掉很多头发，感觉发际线越来越高了。请问年轻人脱发是什么原因？有没有什么方法可以改善脱发情况？","crawlTime":"2025-05-08T00:12:24","tags":["脱发","头发健康","皮肤科"],"standardQuestionId":37,"standardized":true},{"id":36,"sourceUrl":"http://example.com/forum/foothealth/36","sourceSite":"足部健康","title":"脚气总是复发怎么办？","content":"我的脚气反反复复，好了又长。请问脚气为什么容易复发？有没有什么根治的方法或者特别有效的药？","crawlTime":"2025-05-09T00:12:24","tags":["脚气","真菌感染","皮肤病"],"standardQuestionId":36,"standardized":true},{"id":35,"sourceUrl":"http://example.com/forum/dentalcare/35","sourceSite":"牙齿健康","title":"洗牙对牙齿有伤害吗？多久洗一次比较好？","content":"想去洗牙，但是听说洗牙会损伤牙齿。请问洗牙真的对牙齿有伤害吗？一般建议多久洗一次牙比较好？","crawlTime":"2025-05-10T00:12:24","tags":["洗牙","口腔护理","牙齿保健"],"standardQuestionId":35,"standardized":true},{"id":34,"sourceUrl":"http://example.com/forum/travelhealth/34","sourceSite":"旅行健康","title":"出国旅行需要打什么疫苗？","content":"准备出国旅行，目的地是一些热带地区。请问去这些地方旅行之前需要提前打什么疫苗来预防疾病？","crawlTime":"2025-05-11T00:12:24","tags":["旅行健康","疫苗","传染病预防"],"standardQuestionId":34,"standardized":true},{"id":33,"sourceUrl":"http://example.com/forum/pethealth/33","sourceSite":"宠物健康","title":"狗狗拉肚子怎么办？","content":"我家狗狗今天突然拉肚子，精神不太好。请问狗狗拉肚子是什么原因？应该怎么照顾它？需要带它去看医生吗？","crawlTime":"2025-05-12T00:12:24","tags":["宠物健康","狗狗","腹泻"],"standardQuestionId":33,"standardized":true},{"id":32,"sourceUrl":"http://example.com/forum/vaccination/32","sourceSite":"疫苗","title":"新冠疫苗需要每年打吗？","content":"我之前打过新冠疫苗，现在还需要每年打吗？如果需要，打哪种疫苗比较好？","crawlTime":"2025-05-13T00:12:24","tags":["新冠疫苗","疫苗接种","传染病"],"standardQuestionId":32,"standardized":true}],"pageable":{"pageNumber":0,"pageSize":10,"sort":{"empty":false,"sorted":true,"unsorted":false},"offset":0,"unpaged":false,"paged":true},"last":false,"totalPages":5,"totalElements":41,"size":10,"number":0,"sort":{"empty":false,"sorted":true,"unsorted":false},"first":true,"numberOfElements":10,"empty":false}